[
    {"Surname": "Graham", "Forename": "Rex", "ImageUrl": "https://www.hbrc.govt.nz/assets/Uploads/Councillors/_resampled/FillWyI4MDAiLCI4MDAiXQ-A77P5437.jpg"},
    {"Surname": "Barker", "Forename": "Rick", "ImageUrl": "https://www.hbrc.govt.nz/assets/Uploads/Councillors/_resampled/FillWyI4MDAiLCI4MDAiXQ-A77P5416.jpg"},
    {"Surname": "Dick", "Forename": "Alan", "ImageUrl": "https://www.hbrc.govt.nz/assets/Uploads/Councillors/_resampled/FillWyI4MDAiLCI4MDAiXQ-Alan-Dick-cropped.jpg"},
    {"Surname": "Belford", "Forename": "Tom", "ImageUrl": "https://www.hbrc.govt.nz/assets/Uploads/Councillors/_resampled/FillWyI4MDAiLCI4MDAiXQ-A77P5413.jpg"},
    {"Surname": "Wilson", "Forename": "Fenton", "ImageUrl": "https://www.hbrc.govt.nz/assets/Uploads/Councillors/_resampled/FillWyI4MDAiLCI4MDAiXQ-A77P5404.jpg"},
    {"Surname": "Hewitt", "Forename": "Debbie", "ImageUrl": "https://www.hbrc.govt.nz/assets/Uploads/Councillors/_resampled/FillWyI4MDAiLCI4MDAiXQ-A77P5432.jpg"},
    {"Surname": "Beaven", "Forename": "Peter", "ImageUrl": "https://www.hbrc.govt.nz/assets/Uploads/Councillors/_resampled/FillWyI4MDAiLCI4MDAiXQ-A77P5409.jpg"},
    {"Surname": "Kirton", "Forename": "Neil", "ImageUrl": "https://www.hbrc.govt.nz/assets/Uploads/Councillors/_resampled/FillWyI4MDAiLCI4MDAiXQ-A77P5460.jpg"},
    {"Surname": "Bailey", "Forename": "Paul", "ImageUrl": "https://www.hbrc.govt.nz/assets/Uploads/Councillors/_resampled/FillWyI4MDAiLCI4MDAiXQ-Paul-Bailey-cropped.jpg"}
]